%YAML 1.1
%TAG !u! tag:unity3d.com,2011:
--- !u!1045 &1
EditorBuildSettings:
  m_ObjectHideFlags: 0
  serializedVersion: 2
  m_Scenes:
  - enabled: 1
    path: Assets/Scene/SelectCharacter.unity
  - enabled: 1
    path: Assets/Scene/MainMenu.unity
  - enabled: 1
    path: Assets/Scene/SelectLevel.unity
  - enabled: 1
    path: Assets/Scene/Shop.unity
  - enabled: 1
    path: Assets/Scene/loadingPage.unity
  - enabled: 1
    path: Assets/Scene/Lobby.unity
  - enabled: 1
    path: Assets/Scene/scene_1.unity
  - enabled: 1
    path: Assets/Scene/zombies_style.unity
  - enabled: 1
    path: Assets/Scene/scene_2.unity
  - enabled: 1
    path: Assets/Scene/scene_3.unity
  - enabled: 1
    path: Assets/Scene/scene_5.unity
  - enabled: 1
    path: Assets/Scene/scene_6.unity
  - enabled: 1
    path: Assets/Scene/testMultiplayerScene.unity
